Datos espaciales con R
…
# Cargar datos
## Poligonos
comunas <- read_sf("data/comunas.shp")
comunas
```

```
## Simple feature collection with 346 features and 11 fields
## geometry type:  MULTIPOLYGON
## dimension:      XY
## bbox:           xmin: -12184470 ymin: -7554436 xmax: -7393642 ymax: -1978920
## CRS:            3857
## # A tibble: 346 x 12
##    objectid shape_leng dis_elec cir_sena cod_comuna codregion st_area_sh
##       <dbl>      <dbl>    <int>    <int>      <int>     <int>      <dbl>
##  1       48    170039.       16        8       6204         6     9.69e8
##  2       29    125730.       15        8       6102         6     4.16e8
##  3       30     63026.       15        8       6103         6     1.45e8
##  4       31     89841.       15        8       6104         6     3.26e8
##  5       78    122626.       23       11       9121         9     6.99e8
##  6       79    279936.       23       11       9103         9     3.13e9
##  7       81    213152.       23       11       9105         9     1.45e9
##  8       82    142386.       22       11       9106         9     9.26e8
##  9       34     56157.       15        8       6106         6     1.65e8
## 10       37    109701.       15        8       6109         6     3.24e8
## # ... with 336 more rows, and 5 more variables: st_length_ <dbl>, Region <chr>,
## #   Comuna <chr>, Provincia <chr>, geometry <MULTIPOLYGON [m]>
```
…
